{
  "cviceni": {
    "version": {
      "global": "<%= version %>",
      "content": 1
    },
    "katalog": ["test"],
    "language": "cs",
    "slug": "co-se-stalo-ve-volarech",
    "nazev": "Co se stalo ve Volarech?",
    "autor": ["Petr Sedlák"],
    "casovaOsa": {
      "roky": [
        1945
      ],
      "epocha": {
        "svetova": ["druhá světová válka"]
      }
    },
    "klicovaSlova": [
      "holokaust",
      "druhá světová válka",
      "válečné zločiny",
      "kolektivní vina",
      "dobové perspektivy",
      "etická dimenze",
      "tvoříme"
    ],
    "anotace": {
      "ucitel": "Cvičení zachycuje jeden z případů, kdy američtí vojáci donutili německé civilní obyvatelstvo shlédnout oběti nacistické genocidní politiky. Žáci využijí informace ze vzpomínky pamětníka k sepsání novinové zprávy o události. Cvičením lze otevřít téma legitimity přisuzování kolektivní viny a srovnávání se Němců s válečnými zločiny nacistického Německa.",
      "verejna": "Není pochyb, že fotografie zachycuje hrůzný výjev. Průvod civilistů prochází kolem mrtvých těl, vzadu postávají vojáci. Co se zde stalo? Proč tudy museli lidé projít? Prostudujte prameny a sepište novinový článek o tom, co událost znamenala pro zúčastněné."
    },
    "obtiznost": "vysoká",
    "trvani": 45,
    "funkce": ["lupa", "text", "svg", "znacky", "cteni"],
    "pdf": {
      "doporucenyPostup": "co-se-stalo-ve-volarech.pdf"
    },
    "uvodniObrazek": "co-se-stalo-ve-volarech/pic-01-1280w.jpg",
    "id": 114
  },
  "slajd": [
    {
      "class": ["half-slide-previous"],
      "zadani": {
        "hlavni": "Prohlédněte si fotografii.",
        "rozsirujici": ""
      },
      "napoveda": {
        "aktivity": ["lupa"],
        "text": "Při kliknutí levým tlačítkem do obrazu lupa přiblíží část obrazu ve výřezu."
      },
      "prameny": ["co-se-stalo-ve-volarech/pic-00-1024h.jpg"],
      "zpetnaVazba": {
        "text": "Mám prohlédnuto!"
      },
      "popisky": [
        "Volary, mezi 9. a 11. květnem 1945. Zdroj: National Archives and Records Administration"
      ]
    },
    {
      "class": ["half-slide-active"],
      "zadani": {
        "hlavni": "Jaké pocity ve vás snímek vyvolává?",
        "rozsirujici": ""
      },
      "napoveda": {
        "aktivity": ["text"],
        "text": "Do boxu pro text zapisujete odpověď na otázku, nebo jiný komentář (dle zadání)."
      },
      "uzivatelskyText": {
        "otazky": [
          {
            "id": "otazka-1",
            "zadani": "",
            "instrukce": "Pociťuji…",
            "minDelka": 10,
            "maxDelka": 999
          }
        ]
      }
    },
    {
      "class": ["half-slide-previous"],
      "zadani": {
        "hlavni": "Označte skupiny osob, které vám pomohou zjistit, co se na fotografii děje, a popište je.",
        "rozsirujici": ""
      },
      "napoveda": {
        "aktivity": ["svg"],
        "text": "Tahem myši levým tlačítkem kreslíte do obrazu. Nakliknutím na nakreslený tvar pravým tlačítkem otevřete menu s nabídkou úkonů: změnit barvu tvaru, (T) doplnit textový komentář, (X) smazat nakliknutý objekt."
      },
      "svg": {
        "soubory": [
          {
            "id": "svg-1",
            "soubor": "co-se-stalo-ve-volarech/pic-00-1024h.jpg",
            "funkce": ["text", "kresleni"]
          }
        ]
      },
      "popisky": [
        "Volary, mezi 9. a 11. květnem 1945. Zdroj: National Archives and Records Administration"
      ]
    },
    {
      "class": ["half-slide-active"],
      "zadani": {
        "hlavni": "Sepište otázky k případu.",
        "rozsirujici": ""
      },
      "napoveda": {
        "aktivity": ["text"],
        "text": "Do boxu pro text zapisujete odpověď na otázku, nebo jiný komentář (dle zadání)."
      },
      "uzivatelskyText": {
        "otazky": [
          {
            "id": "otazka-2",
            "zadani": "Představte si, že jste novináři a kolega vám do redakce přinesl tuto fotografii. Šéfredaktor chce, abyste k ní napsali článek. Poznamenejte si alespoň tři otázky, na které potřebujete znát odpověď.",
            "instrukce": "Potřebuji zjistit…",
            "minDelka": 10,
            "maxDelka": 999
          }
        ]
      }
    },
    {
      "zadani": {
        "hlavni": "Prozkoumejte další prameny.",
        "rozsirujici": "Napište, jaké odpovědi jste dohledali na své otázky. Můžete upravit i znění otázek."
      },
      "napoveda": {
        "aktivity": ["text"],
        "text": "Do boxu pro text zapisujete odpověď na otázku, nebo jiný komentář (dle zadání)."
      },
      "uzivatelskyText": {
        "layout": "velka-galerie",
        "galerie": [
          {
            "soubor": "co-se-stalo-ve-volarech/pic-01-1280w.jpg",
            "popisek": "Obraz zachycuje pohřeb 96 obětí z řad vězeňkyň koncentračního tábora, které byly německými strážnými donuceny na konci války k evakuačnímu pochodu před postupující americkou armádou. Oběti zemřely vyčerpáním a v důsledku násilného zacházení. Pohřbeny byly v několika hromadných hrobech u Volar. Američtí vojáci nařídili lidem z města po jeho obsazení těla obětí vyzvednout a přemístit na zdejší hřbitov. Ostatní obyvatelé museli přihlížet. Obraz Roberta Stubnera byl přetiskován v květnu 1945 na pohlednice. Zdroj: Jaroslava Krejsová: Přes Volary přešla smrt: pochod smrti očima pamětníků, Volary 2008"
          },
          {
            "typ": "text",
            "objekt": "Američtí vojáci nařídili, aby byli němečtí obyvatelé Volar (kteří tvořili ve městě v jihozápadních Čechách do odsunu v roce 1946 většinu) konfrontováni se zločiny svých krajanů. Měli pocítit vinu, která se týkala dle vojáků německého národa jako celku (redakčně upraveno).",
            "popisek": "Zdroj: Carsten Gansel – Matthias Braun (Hg.): Es geht um Erwin Strittmatter oder Vom Streit um die Erinnerung, Göttingen 2012"
          },
          {
            "soubor": "co-se-stalo-ve-volarech/video-00.mp4",
            "popisek": "Videozáběry pořídili američtí vojáci po obsazení Volar v květnu 1945. Zdroj: The National Archives and Records Administration"
          }
        ],
        "otazky": [
          {
            "id": "otazka-3",
            "zadani": "Mé otázky:",
            "duplikovat": ["otazka-2"],
            "instrukce": "",
            "minDelka": 10,
            "maxDelka": 500
          },
          {
            "id": "otazka-4",
            "zadani": "Má zjištění:",
            "instrukce": "",
            "minDelka": 10,
            "maxDelka": 500
          }
        ]
      }
    },
    {
      "zadani": {
        "hlavni": "Na co si vzpomíná pamětník?",
        "rozsirujici": "Na základě vzpomínek Paula Praxla doplňte svá dosavadní zjištění. Můžete upravit i znění otázek."
      },
      "napoveda": {
        "aktivity": ["text"],
        "text": "Do boxu pro text zapisujete odpověď na otázku, nebo jiný komentář (dle zadání)."
      },
      "uzivatelskyText": {
        "layout": "velka-galerie",
        "galerie": [
          {
            "soubor": "co-se-stalo-ve-volarech/pic-02-1024h.jpg",
            "popisek": "Paul Praxl ve svých 15 letech v novém domově ve Waldkirchenu v Bavorsku, léto 1950. Zdroj: archiv Paula Praxla"
          },
          {
            "typ": "text",
            "objekt": "Moje vzpomínka na 11. květen 1945 ve Volarech je - přirozeně - velmi silně zamlžená. Vím jen to, že jsem procházel či spíše klopýtal v dlouhé řadě Volarských za mojí matkou, vpravo od těl ležících těsně vedle sebe v otevřených rakvích. Můj otec u toho nebyl, nýbrž stál nad polem vyskládaných mrtvol vedle amerických důstojníků, kteří ho jako starostu nechali v úřadě, aby přebíral jejich rozkazy.",
            "popisek": "Dopis Paula Praxla Petru Sedlákovi, 12. července 2020. Zdroj: archiv autora"
          }
        ],
        "otazky": [
          {
            "id": "otazka-5",
            "zadani": "Mé otázky:",
            "duplikovat": ["otazka-3"],
            "instrukce": "",
            "minDelka": 10,
            "maxDelka": 500
          },
          {
            "id": "otazka-6",
            "zadani": "Má zjištění:",
            "duplikovat": ["otazka-4"],
            "instrukce": "",
            "minDelka": 10,
            "maxDelka": 500
          }
        ]
      }
    },
    {
      "zadani": {
        "hlavni": "Co pamětník během události prožíval?",
        "rozsirujici": "S využitím nových informací od pamětníka doplňte svá zjištění. Můžete upravit i znění otázek."
      },
      "napoveda": {
        "aktivity": ["text"],
        "text": "Do boxu pro text zapisujete odpověď na otázku, nebo jiný komentář (dle zadání)."
      },
      "uzivatelskyText": {
        "layout": "velka-galerie",
        "galerie": [
          {
            "typ": "text",
            "objekt": "Protože jsem nesnesl pohled na znetvořená těla (vůbec první mrtvoly, které jsem do té doby viděl!), díval jsem se jinam nebo zavíral oči. Pociťoval jsem hrůzu, ale také strach (protože co se s námi ještě stane?). Ještě dlouhé dny se mi o tom zdálo. Tohle trauma ale brzy překryly další dramatické události ve Volarech, které se mezitím staly českou obcí - jako rabování, zabavování domů a konečně „odsun” v březnu 1946, ztráta domova s jeho neradostnými následky.",
            "popisek": "Dopis Paula Praxla Petru Sedlákovi, 12. července 2020. Zdroj: archiv autora"
          }
        ],
        "otazky": [
          {
            "id": "otazka-7",
            "zadani": "Mé otázky:",
            "duplikovat": ["otazka-5"],
            "instrukce": "",
            "minDelka": 10,
            "maxDelka": 500
          },
          {
            "id": "otazka-8",
            "zadani": "Má zjištění:",
            "duplikovat": ["otazka-6"],
            "instrukce": "",
            "minDelka": 10,
            "maxDelka": 500
          }
        ]
      }
    },
    {
      "zadani": {
        "hlavni": "Co se stalo ve Volarech?",
        "rozsirujici": "Využijte zjištěné informace a napište novinovou zprávu."
      },
      "napoveda": {
        "aktivity": ["text"],
        "text": "Do boxu pro text zapisujete odpověď na otázku, nebo jiný komentář (dle zadání)."
      },
      "uzivatelskyText": {
        "layout": "horizontalni",
        "otazky": [
          {
            "id": "otazka-9",
            "zadani": "Má zjištění:",
            "duplikovat": ["otazka-8"],
            "instrukce": "",
            "minDelka": 10,
            "maxDelka": 999,
            "vyska": 25
          },
          {
            "id": "otazka-10",
            "zadani": "Moje novinová zpráva:",
            "instrukce": "",
            "minDelka": 10,
            "maxDelka": 999,
            "vyska": 25
          }
        ]
      }
    },
    {
      "class": " half-slide-previous",
      "zadani": {
        "hlavni": "Co si pamětník o události myslí?",
        "rozsirujici": "Šéfredaktor chce, abyste si v článku zodpověděli následující otázku: Zapůsobila prohlídka obětí na německé civilisty tak, jak zamýšleli američtí vojáci? Zvýrazněte ve vzpomínce pasáže, které vám pomohou odpovědět."
      },
      "napoveda": {
        "aktivity": ["text-editor"],
        "text": "Levým tlačítkem myši zabarvíte zvolené slovo nebo slovní spojení. Otevře se vám nabídka, v níž zvolíte označovanou kategorii. Křížkem lze označení smazat."
      },
      "textovyEditor": {
        "texty": [
          {
            "id": 1,
            "text": "text-00",
            "funkce": "zvyraznovani",
            "menu": [
              {
                "title": "Klíčová pasáž",
                "commandName": "klicova-pasaz",
                "classes": "text-orange",
                "command": "toggle-class",
                "commandOptions": {
                  "toggleClass": "node-selected node-text-orange",
                  "closeBtn": true,
                  "comments": false,
                  "commentsClass": "text-orange"
                }
              }
            ]
          }
        ]
      },
      "popisky": ["Dopis Paula Praxla Petru Sedlákovi, 12. července 2020. Zdroj: archiv autora"]
    },
    {
      "class": ["half-slide-active"],
      "zadani": {
        "hlavni": "Co se stalo ve Volarech?",
        "rozsirujici": "Doplňte článek o odpověď, zda prohlídka obětí zapůsobila na německé civilisty způsobem, který zamýšleli američtí vojáci."
      },
      "napoveda": {
        "aktivity": ["text"],
        "text": "Do boxu pro text zapisujete odpověď na otázku, nebo jiný komentář (dle zadání)."
      },
      "uzivatelskyText": {
        "otazky": [
          {
            "id": "otazka-11",
            "zadani": "Moje novinová zpráva:",
            "duplikovat": ["otazka-10"],
            "instrukce": "",
            "minDelka": 10,
            "maxDelka": 999,
            "vyska": 25
          }
        ]
      }
    }
  ]
}
