{
  "cviceni": {
    "version": {
      "global": "<%= version %>",
      "content": 1
    },
    "language": "cs",
    "katalog": ["test"],
    "slug": "lipany-v-ucebnicich",
    "nazev": "Lipany v učebnicích",
    "autor": [
      "Čeněk Pýcha"
    ],
    "klicovaSlova": [
      ""
    ],
    "anotace": {
      "ucitel": "",
      "verejna": "Cvičení se zaměřuje na analýzu popisu bitvy u Lipan v českých učebnicích dějepisu napříč 20. stoletím."
    },
    "trvani": 30,
    "funkce": [
      "cteni",
      "text",
      "kviz",
      "text-editor",
      "analyticka-tabulka"
    ],
    "pdf": {
      "doporucenyPostup": "lipany-v-ucebnicich.pdf"
    },
    "uvodniObrazek": "lipany-v-ucebnicich/pic-00-1280w.jpg",
    "id": 55
  },
  "slajd": [
    {
      "zadani": {
        "hlavni": "Přečtěte si první text.",
        "rozsirujici": "Vyznačte v textu aktéry, příčiny bitvy, obraz bitvy a důsledky bitvy."
      },
      "napoveda": {
        "aktivity": [
          "text-editor"
        ],
        "text": "Levým tlačítkem myši zabarvíte zvolené slovo nebo slovní spojení. Otevře se vám nabídka, v níž zvolíte označovanou kategorii. Křížkem lze označení smazat."
      },
      "textovyEditor": {
        "texty": [
          {
            "id": 0,
            "text": "text-00",
            "funkce": "zvyraznovani",
            "menu": [
              {
                "title": "Aktéři",
                "commandName": "akteri-cechura",
                "classes": "text-red",
                "command": "toggle-class",
                "commandOptions": {
                  "toggleClass": "node-selected node-text-red",
                  "closeBtn": true,
                  "comments": false,
                  "commentsClass": "text-red"
                }
              },
              {
                "title": "Příčiny bitvy",
                "commandName": "priciny-cechura",
                "classes": "text-orange",
                "command": "toggle-class",
                "commandOptions": {
                  "toggleClass": "node-selected node-text-orange",
                  "closeBtn": true,
                  "comments": false,
                  "commentsClass": "text-orange"
                }
              },
              {
                "title": "Obraz bitvy",
                "commandName": "obraz-cechura",
                "classes": "text-yellow",
                "command": "toggle-class",
                "commandOptions": {
                  "toggleClass": "node-selected node-text-yellow",
                  "closeBtn": true,
                  "comments": false,
                  "commentsClass": "text-yellow"
                }
              },
              {
                "title": "Důsledky bitvy",
                "commandName": "dusledky-cechura",
                "classes": "text-blue",
                "command": "toggle-class",
                "commandOptions": {
                  "toggleClass": "node-selected node-text-blue",
                  "closeBtn": true,
                  "comments": false,
                  "commentsClass": "text-blue"
                }
              }
            ]
          }
        ]
      },
      "popisky": [
        "ČECHURA, Jaroslav a kol.: Dějepis pro 7. ročník ZŠ. Středověk a raný novověk. SPN, Praha 2004, s. 61."
      ]
    },
    {
      "zadani": {
        "hlavni": "Přečtěte si druhý text.",
        "rozsirujici": "Vyznačte v textu aktéry, příčiny bitvy, obraz bitvy a důsledky bitvy."
      },
      "napoveda": {
        "aktivity": [
          "text-editor"
        ],
        "text": "Levým tlačítkem myši zabarvíte zvolené slovo nebo slovní spojení. Otevře se vám nabídka, v níž zvolíte označovanou kategorii. Křížkem lze označení smazat."
      },
      "textovyEditor": {
        "texty": [
          {
            "id": 1,
            "text": "text-01",
            "funkce": "zvyraznovani",
            "menu": [
              {
                "title": "Aktéři",
                "commandName": "akteri-vanicek",
                "classes": "text-red",
                "command": "toggle-class",
                "commandOptions": {
                  "toggleClass": "node-selected node-text-red",
                  "closeBtn": true,
                  "comments": false,
                  "commentsClass": "text-red"
                }
              },
              {
                "title": "Příčiny bitvy",
                "commandName": "priciny-vanicek",
                "classes": "text-orange",
                "command": "toggle-class",
                "commandOptions": {
                  "toggleClass": "node-selected node-text-orange",
                  "closeBtn": true,
                  "comments": false,
                  "commentsClass": "text-orange"
                }
              },
              {
                "title": "Obraz bitvy",
                "commandName": "obraz-vanicek",
                "classes": "text-yellow",
                "command": "toggle-class",
                "commandOptions": {
                  "toggleClass": "node-selected node-text-yellow",
                  "closeBtn": true,
                  "comments": false,
                  "commentsClass": "text-yellow"
                }
              },
              {
                "title": "Důsledky bitvy",
                "commandName": "dusledky-vanicek",
                "classes": "text-blue",
                "command": "toggle-class",
                "commandOptions": {
                  "toggleClass": "node-selected node-text-blue",
                  "closeBtn": true,
                  "comments": false,
                  "commentsClass": "text-blue"
                }
              }
            ]
          }
        ]
      },
      "popisky": [
        "VANÍČEK, Vratislav – HROCHOVÁ, Věra – SMETÁNKA, Zdeněk: Historie: Středověk 2. Scientia, Praha 1995, s. 88."
      ]
    },
    {
      "zadani": {
        "hlavni": "Přečtěte si třetí text.",
        "rozsirujici": "Vyznačte v textu aktéry, příčiny bitvy, obraz bitvy a důsledky bitvy."
      },
      "napoveda": {
        "aktivity": [
          "text-editor"
        ],
        "text": "Levým tlačítkem myši zabarvíte zvolené slovo nebo slovní spojení. Otevře se vám nabídka, v níž zvolíte označovanou kategorii. Křížkem lze označení smazat."
      },
      "textovyEditor": {
        "texty": [
          {
            "id": 2,
            "text": "text-02",
            "funkce": "zvyraznovani",
            "menu": [
              {
                "title": "Aktéři",
                "commandName": "akteri-michovsky",
                "classes": "text-red",
                "command": "toggle-class",
                "commandOptions": {
                  "toggleClass": "node-selected node-text-red",
                  "closeBtn": true,
                  "comments": false,
                  "commentsClass": "text-red"
                }
              },
              {
                "title": "Příčiny bitvy",
                "commandName": "priciny-michovsky",
                "classes": "text-orange",
                "command": "toggle-class",
                "commandOptions": {
                  "toggleClass": "node-selected node-text-orange",
                  "closeBtn": true,
                  "comments": false,
                  "commentsClass": "text-orange"
                }
              },
              {
                "title": "Obraz bitvy",
                "commandName": "obraz-michovsky",
                "classes": "text-yellow",
                "command": "toggle-class",
                "commandOptions": {
                  "toggleClass": "node-selected node-text-yellow",
                  "closeBtn": true,
                  "comments": false,
                  "commentsClass": "text-yellow"
                }
              },
              {
                "title": "Důsledky bitvy",
                "commandName": "dusledky-michovsky",
                "classes": "text-blue",
                "command": "toggle-class",
                "commandOptions": {
                  "toggleClass": "node-selected node-text-blue",
                  "closeBtn": true,
                  "comments": false,
                  "commentsClass": "text-blue"
                }
              }
            ]
          }
        ]
      },
      "popisky": [
        "MICHOVSKÝ, Václav a kol.: Z dějin naší vlasti: učebnice pro 8. ročník zvláštních škol. SPN, Praha 1967, s. 58–59."
      ]
    },
    {
      "zadani": {
        "hlavni": "Přečtěte si čtvrtý text.",
        "rozsirujici": "Vyznačte v textu aktéry, příčiny bitvy, obraz bitvy a důsledky bitvy."
      },
      "napoveda": {
        "aktivity": [
          "text-editor"
        ],
        "text": "Levým tlačítkem myši zabarvíte zvolené slovo nebo slovní spojení. Otevře se vám nabídka, v níž zvolíte označovanou kategorii. Křížkem lze označení smazat."
      },
      "textovyEditor": {
        "texty": [
          {
            "id": 3,
            "text": "text-03",
            "funkce": "zvyraznovani",
            "menu": [
              {
                "title": "Aktéři",
                "commandName": "akteri-dedina",
                "classes": "text-red",
                "command": "toggle-class",
                "commandOptions": {
                  "toggleClass": "node-selected node-text-red",
                  "closeBtn": true,
                  "comments": false,
                  "commentsClass": "text-red"
                }
              },
              {
                "title": "Příčiny bitvy",
                "commandName": "priciny-dedina",
                "classes": "text-orange",
                "command": "toggle-class",
                "commandOptions": {
                  "toggleClass": "node-selected node-text-orange",
                  "closeBtn": true,
                  "comments": false,
                  "commentsClass": "text-orange"
                }
              },
              {
                "title": "Obraz bitvy",
                "commandName": "obraz-dedina",
                "classes": "text-yellow",
                "command": "toggle-class",
                "commandOptions": {
                  "toggleClass": "node-selected node-text-yellow",
                  "closeBtn": true,
                  "comments": false,
                  "commentsClass": "text-yellow"
                }
              },
              {
                "title": "Důsledky bitvy",
                "commandName": "dusledky-dedina",
                "classes": "text-blue",
                "command": "toggle-class",
                "commandOptions": {
                  "toggleClass": "node-selected node-text-blue",
                  "closeBtn": true,
                  "comments": false,
                  "commentsClass": "text-blue"
                }
              }
            ]
          }
        ]
      },
      "popisky": [
        "DĚDINA, Jan – FIDRMUC, Oldřich – CHOC, Pavel a kol.: Dějiny středověku: učební text pro 7. postupný ročník všeobecně vzdělávacích škol. SPN, Praha 1954, s. 63–64."
      ]
    },
    {
      "zadani": {
        "hlavni": "Přečtěte si pátý text.",
        "rozsirujici": "Vyznačte v textu aktéry, příčiny bitvy, obraz bitvy a důsledky bitvy."
      },
      "napoveda": {
        "aktivity": [
          "text-editor"
        ],
        "text": "Levým tlačítkem myši zabarvíte zvolené slovo nebo slovní spojení. Otevře se vám nabídka, v níž zvolíte označovanou kategorii. Křížkem lze označení smazat."
      },
      "textovyEditor": {
        "texty": [
          {
            "id": 4,
            "text": "text-04",
            "funkce": "zvyraznovani",
            "menu": [
              {
                "title": "Aktéři",
                "commandName": "akteri-pesek",
                "classes": "text-red",
                "command": "toggle-class",
                "commandOptions": {
                  "toggleClass": "node-selected node-text-red",
                  "closeBtn": true,
                  "comments": false,
                  "commentsClass": "text-red"
                }
              },
              {
                "title": "Příčiny bitvy",
                "commandName": "priciny-pesek",
                "classes": "text-orange",
                "command": "toggle-class",
                "commandOptions": {
                  "toggleClass": "node-selected node-text-orange",
                  "closeBtn": true,
                  "comments": false,
                  "commentsClass": "text-orange"
                }
              },
              {
                "title": "Obraz bitvy",
                "commandName": "obraz-pesek",
                "classes": "text-yellow",
                "command": "toggle-class",
                "commandOptions": {
                  "toggleClass": "node-selected node-text-yellow",
                  "closeBtn": true,
                  "comments": false,
                  "commentsClass": "text-yellow"
                }
              },
              {
                "title": "Důsledky bitvy",
                "commandName": "dusledky-pesek",
                "classes": "text-blue",
                "command": "toggle-class",
                "commandOptions": {
                  "toggleClass": "node-selected node-text-blue",
                  "closeBtn": true,
                  "comments": false,
                  "commentsClass": "text-blue"
                }
              }
            ]
          }
        ]
      },
      "popisky": [
        "PEŠEK, Josef: Učebnice dějepisu pro nižší třídy středních škol I. Profesorské nakladatelství a knihkupectví, Praha 1932, s. 60."
      ]
    },
    {
      "class": "half-slide-previous test-kviz",
      "zadani": {
        "hlavni": "Na základě vaší analýzy vyznačte, který text nejvíce odpovídá těmto tvrzením.",
        "rozsirujici": ""
      },
      "napoveda": {
        "aktivity": [
          "analyticka-tabulka"
        ],
        "text": "Vyberte jednu z možností."
      },
      "testKviz": {
        "id": "table-testKviz-1",
        "zadani": [
          {
            "otazka": "Přináší nejpřesnější faktografii.",
            "odpovedi": [
              {
                "text": "2004"
              },
              {
                "text": "1995"
              },
              {
                "text": "1967"
              },
              {
                "text": "1954"
              },
              {
                "text": "1932"
              }
            ]
          },
          {
            "otazka": "Je nejvíce ideologický.",
            "odpovedi": [
              {
                "text": "2004"
              },
              {
                "text": "1995"
              },
              {
                "text": "1967"
              },
              {
                "text": "1954"
              },
              {
                "text": "1932"
              }
            ]
          },
          {
            "otazka": "Je nejvíce literární.",
            "odpovedi": [
              {
                "text": "2004"
              },
              {
                "text": "1995"
              },
              {
                "text": "1967"
              },
              {
                "text": "1954"
              },
              {
                "text": "1932"
              }
            ]
          },
          {
            "otazka": "Je nejvíce vědecký.",
            "odpovedi": [
              {
                "text": "2004"
              },
              {
                "text": "1995"
              },
              {
                "text": "1967"
              },
              {
                "text": "1954"
              },
              {
                "text": "1932"
              }
            ]
          }
        ]
      }
    },
    {
      "class": "half-slide-active",
      "zadani": {
        "hlavni": "Zodpovězte záverečnou otázku.",
        "rozsirujici": ""
      },
      "napoveda": {
        "aktivity": [
          "text"
        ],
        "text": "Do boxu pro text zapisujete odpověď na otázku, nebo jiný komentář (dle zadání)."
      },
      "uzivatelskyText": {
        "otazky": [
          {
            "id": "text-1",
            "zadani": "Jaká kritéria by podle vás měla splňovat učebnice dějepisu?",
            "instrukce": "Myslím si, že…",
            "minDelka": 10,
            "maxDelka": 500
          }
        ]
      }
    }
  ]
}
