{
  "cviceni": {
    "version": {
      "global": "<%= version %>",
      "content": 1
    },
    "katalog": ["test"],
    "language": "cs",
    "slug": "je-zlicin-mesto-nebo-venkov",
    "nazev": "Je Zličín město nebo venkov?",
    "autor": ["Petr Sedlák", "Michal Kurz", "Martin Váňa"],
    "casovaOsa": {
      "roky": [1950, 2020],
      "epocha": {
        "ceska": ["transformace"]
      }
    },
    "klicovaSlova": [
      "urbanizace",
      "město a venkov",
      "příčiny a důsledky",
      "díváme se kolem sebe"
    ],
    "anotace": {
      "ucitel": "Cvičení vychází ze srovnání leteckých snímků krajiny na jihozápadním okraji Prahy. První byl pořízen okolo roku 1950, druhý po roce 2000. Patrné je všestranné propojení původně venkovské obce Zličín s pražskou aglomerací, kterou v roce 1994 zintenzivnilo přivedení linky metra. Žáci zváží další prameny a odpovídají na otázku, jak proměnila urbanizace život obyvatel v původně venkovské krajině a pospolitosti.",
      "verejna": "Jeden z okrajů Prahy. Sídliště, obchoďáky, sklady, dálniční křižovatky a přivaděče. Konečná metra a přestupní stanice pro dojíždějící z kraje. A přece starší zástavba odkazuje na venkovský původ Zličína. Zbylo zde něco z venkova i v životě lidí?"
    },
    "obtiznost": "střední",
    "trvani": 30,
    "funkce": [
      "lupa",
      "cteni",
      "text",
      "svg",
      "pretahovani",
      "text",
      "text-editor"
    ],
    "pdf": {
      "doporucenyPostup": "je-zlicin-mesto-nebo-venkov.pdf"
    },
    "uvodniObrazek": "je-zlicin-mesto-nebo-venkov/pic-01-1280w.jpg",
    "id": 107
  },
  "slajd": [
    {
      "zadani": {
        "hlavni": "Na leteckých fotografiích vidíte stejné místo na jihozápadním okraji Prahy. Prohlédněte si fotografie.",
        "rozsirujici": ""
      },
      "napoveda": {
        "aktivity": ["lupa"],
        "text": "Při kliknutí levým tlačítkem do obrazu lupa přiblíží část obrazu ve výřezu."
      },
      "prameny": [
        "je-zlicin-mesto-nebo-venkov/pic-00-1280w.jpg",
        "je-zlicin-mesto-nebo-venkov/pic-01-1280w.jpg"
      ],
      "popisky": [
        "Zličín, okolo roku 1950. Zdroj: Vojenský geografický a hydrometeorologický úřad Dobruška.",
        "Zličín, 2020. Zdroj: Český úřad zeměměřický a katastrální."
      ]
    },

    {
      "zadani": {
        "hlavni": "Co se změnilo?",
        "rozsirujici": "Červeně ve fotografiích označte, co se změnilo, a modře, co zůstalo stejné. Popište označené body."
      },
      "napoveda": {
        "aktivity": ["svg"],
        "text": "Kliknutím na snímek levým tlačítkem myši označujete bod. Nakliknutím na bod pravým tlačítkem otevřete menu s nabídkou úkonů: změnit barvu bodu, (T) doplnit textový komentář, (X) smazat nakliknutý objekt."
      },
      "svg": {
        "soubory": [
          {
            "id": "svg-1",
            "soubor": "je-zlicin-mesto-nebo-venkov/pic-00-1024w.jpg",
            "funkce": ["text", "znacky"]
          },
          {
            "id": "svg-2",
            "soubor": "je-zlicin-mesto-nebo-venkov/pic-01-1024w.jpg",
            "funkce": ["text", "znacky"]
          }
        ]
      },
      "popisky": [
        "Zličín, okolo roku 1950. Zdroj: Vojenský geografický a hydrometeorologický úřad Dobruška.",
        "Zličín, 2020. Zdroj: Český úřad zeměměřický a katastrální."
      ]
    },

    {
      "zadani": {
        "hlavni": "Spojení s městem.",
        "rozsirujici": "Prohlédněte si další prameny vlevo. Přečtěte si komentář. Zeleně označte pasáže, ve kterých autor zmiňuje, co spojilo tuto oblast s městem. Žlutě zvýrazněte sousloví, kterými spojení hodnotí."
      },
      "napoveda": {
        "aktivity": ["lupa", "text-editor"],
        "text": "Levým tlačítkem myši zabarvíte zvolené slovo nebo slovní spojení. Otevře se vám nabídka, v níž zvolíte označovanou kategorii. Křížkem lze označení smazat."
      },
      "textovyEditor": {
        "nastaveni": {
          "layout": "velka-galerie"
        },
        "galerie": [
          {
            "soubor": "je-zlicin-mesto-nebo-venkov/pic-02-1280w.jpg",
            "popisek": "Komentář Petra Bratského, starosty Jihozápadního Města, k otevření nového úseku metra do Zličína. Informační leták o zprovoznění metra V.B z Nových Butovic do Zličína 1994. Zdroj: Archiv Dopravního podniku hl. m. Prahy"
          },
          {
            "soubor": "je-zlicin-mesto-nebo-venkov/pic-03-859h.jpg",
            "popisek": "Informační leták o zprovoznění metra V.B z Nových Butovic do Zličína 1994. Zdroj: Archiv Dopravního podniku hl. m. Prahy"
          },
          {
            "soubor": "je-zlicin-mesto-nebo-venkov/pic-04-780w.jpg",
            "popisek": "Pražské metro v roce 1994. Zdroj: Wikipedie"
          }
        ],
        "texty": [
          {
            "id": 0,
            "text": "text-00",
            "funkce": "zvyraznovani",
            "menu": [
              {
                "title": "spojení s městem",
                "commandName": "oznaceneZlicin1",
                "classes": "text-green",
                "command": "toggle-class",
                "commandOptions": {
                  "toggleClass": "node-selected node-text-green",
                  "closeBtn": true,
                  "comments": false,
                  "commentsClass": "text-green"
                }
              },
              {
                "title": "hodnocení spojení",
                "commandName": "oznaceneZlicin2",
                "classes": "text-yellow",
                "command": "toggle-class",
                "commandOptions": {
                  "toggleClass": "node-selected node-text-yellow",
                  "closeBtn": true,
                  "comments": false,
                  "commentsClass": "text-yellow"
                }
              }
            ]
          }
        ]
      },
      "popisky": [
        "Komentář Petra Bratského, starosty Jihozápadního Města, k otevření nového úseku metra do Zličína. Informační leták o zprovoznění metra V.B z Nových Butovic do Zličína 1994. Zdroj: Archiv Dopravního podniku hl. m. Prahy [redakčně kráceno]"
      ]
    },

    {
      "zadani": {
        "hlavni": "Venkov a město",
        "rozsirujici": "Přiřaďte ke každé mapě čtyři pojmy, které nejlépe charakterizují způsob života ve znázorněné krajině."
      },
      "napoveda": {
        "aktivity": ["razeni"],
        "text": "Pomocí drag and drop přesouvejte položky z nabídky do obrázku."
      },
      "svg": {
        "pretahovani": {
          "id": "pretahovani-1",
          "wasDropped": false,
          "items": [
            {
              "objekt": "dojíždění za prací",
              "medium": "tag"
            },
            {
              "objekt": "svébytná obec",
              "medium": "tag"
            },
            {
              "objekt": "práce v místě",
              "medium": "tag"
            },
            {
              "objekt": "kulturní nabídka v místě",
              "medium": "tag"
            },
            {
              "objekt": "častá přeprava po městě",
              "medium": "tag"
            },
            {
              "objekt": "kulturní vyžití ve městě",
              "medium": "tag"
            },
            {
              "objekt": "život se odehrává v obci",
              "medium": "tag"
            },
            {
              "objekt": "součást velkoměsta",
              "medium": "tag"
            }
          ]
        },
        "soubory": [
          {
            "id": "svg-3",
            "soubor": "je-zlicin-mesto-nebo-venkov/pic-00-1024w.jpg",
            "popisek": "Zličín, okolo roku 1950. Zdroj: Vojenský geografický a hydrometeorologický úřad Dobruška.",
            "funkce": [],
            "drop": true,
            "duplikovat": ["svg-1"]
          },
          {
            "id": "svg-4",
            "soubor": "je-zlicin-mesto-nebo-venkov/pic-01-1024w.jpg",
            "popisek": "Zličín, 2020. Zdroj: Český úřad zeměměřický a katastrální.",
            "funkce": [],
            "drop": true,
            "duplikovat": ["svg-2"]
          }
        ]
      }
    },

    {
      "zadani": {
        "hlavni": "Venkov nebo město?",
        "rozsirujici": "Zdůvodněte své odpovědi."
      },
      "napoveda": {
        "aktivity": ["text"],
        "text": "Do boxu pro text zapisujete odpověď na otázku, nebo jiný komentář (dle zadání)."
      },
      "uzivatelskyText": {
        "layout": "velka-galerie",
        "galerie": [
          {
            "typ": "svg",
            "objekt": {
              "id": "svg-3-duplicate",
              "soubor": "je-zlicin-mesto-nebo-venkov/pic-00-1280w.jpg",
              "duplikovat": ["svg-3"]
            }
          },
          {
            "typ": "svg",
            "objekt": {
              "id": "svg-4-duplicate",
              "soubor": "je-zlicin-mesto-nebo-venkov/pic-01-1280w.jpg",
              "duplikovat": ["svg-4"]
            }
          },
          {
            "soubor": "je-zlicin-mesto-nebo-venkov/pic-05-945w.jpg",
            "popisek": "Obec Zličín na přelomu 19. a 20. století. Zdroj: archiv Úřadu MČ Praha-Zličín (upravila Taťána Binková)"
          }
        ],
        "otazky": [
          {
            "id": "text-1",
            "zadani": "Co proměna krajiny kolem Zličína vypovídá o životě jeho obyvatel po roce 1950?",
            "instrukce": "Myslím si, že…",
            "minDelka": 10,
            "maxDelka": 400
          },
          {
            "id": "text-2",
            "zadani": "Stal se Zličín zcela součástí města, anebo může v něčem zůstávat venkovem?",
            "instrukce": "Myslím si, že…",
            "minDelka": 10,
            "maxDelka": 400
          }
        ]
      }
    }
  ]
}
